…
recessions59up<-filter(recessions,year(from)>1959)

library(scales)
drop_na(yield_curve, maturity)

## # A tibble: 6,884 × 5
##    date       series_id value maturity duration             
##    <date>     <chr>     <dbl> <chr>    <chr>                
##  1 1960-01-01 TB3MS      4.35 3m       3-Month Treasury Bill
##  2 1960-02-01 TB3MS      3.96 3m       3-Month Treasury Bill
##  3 1960-03-01 TB3MS      3.31 3m       3-Month Treasury Bill
##  4 1960-04-01 TB3MS      3.23 3m       3-Month Treasury Bill
##  5 1960-05-01 TB3MS      3.29 3m       3-Month Treasury Bill
##  6 1960-06-01 TB3MS      2.46 3m       3-Month Treasury Bill
##  7 1960-07-01 TB3MS      2.3  3m       3-Month Treasury Bill
##  8 1960-08-01 TB3MS      2.3  3m       3-Month Treasury Bill
##  9 1960-09-01 TB3MS      2.48 3m       3-Month Treasury Bill
## 10 1960-10-01 TB3MS      2.3  3m       3-Month Treasury Bill
## # … with 6,874 more rows
…
